module coding-test

go 1.14

require (
	github.com/gin-gonic/gin v1.6.3
	github.com/mitchellh/go-homedir v1.1.0
	github.com/spf13/cobra v1.0.0
	github.com/spf13/viper v1.7.0
	github.com/stretchr/testify v1.4.0
)
